Web scraping for drug safety
…
---

### Ibuprofen example

```r
scrape_drug('ibuprofen.html')
```

```
# # A tibble: 24 x 5
#    name_of_drug condition              route        patient   dose              
#    <chr>        <chr>                  <chr>        <chr>     <chr>             
#  1 IBUPROFEN    "Pain and inflammatio~ By mouth us~ Adult     Initially 300–400~
#  2 IBUPROFEN    "Pain and inflammatio~ By mouth us~ Adult     1.6 g once daily,~
#  3 IBUPROFEN    "Acute migraine\n"     By mouth us~ Adult     400–600 mg for 1 ~
#  4 IBUPROFEN    "Mild to moderate pai~ By mouth us~ Child 3–~ 50 mg 3 times a d~
#  5 IBUPROFEN    "Mild to moderate pai~ By mouth us~ Child 6–~ 50 mg 3–4 times a~
#  6 IBUPROFEN    "Mild to moderate pai~ By mouth us~ Child 1–~ 100 mg 3 times a ~
#  7 IBUPROFEN    "Mild to moderate pai~ By mouth us~ Child 4–~ 150 mg 3 times a ~
#  8 IBUPROFEN    "Mild to moderate pai~ By mouth us~ Child 7–~ 200 mg 3 times a ~
#  9 IBUPROFEN    "Mild to moderate pai~ By mouth us~ Child 10~ 300 mg 3 times a ~
# 10 IBUPROFEN    "Mild to moderate pai~ By mouth us~ Child 12~ Initially 300–400~
# # ... with 14 more rows
```
…
